OldStuff/lab4/priorityEncoder/pe_tb.vcd
$date
	Mon Sep 09 04:53:41 2024
$end
$version
	Icarus Verilog
$end
$timescale
	1ps
$end
$scope module tb_pe $end
$var wire 2 ! out [1:0] $end
$var wire 1 " v $end
$var reg 4 # in [3:0] $end
$scope module uut $end
$var wire 1 $ a $end
$var wire 4 % in [3:0] $end
$var wire 2 & out [1:0] $end
$var wire 1 " v $end
$upscope $end
$upscope $end
$enddefinitions $end
#0
$dumpvars
b0 &
b0 %
0$
b0 #
0"
b0 !
$end
#10000
1"
b1 #
b1 %
#20000
b1 !
b1 &
1$
b10 #
b10 %
#30000
b11 #
b11 %
#40000
0$
b10 !
b10 &
b100 #
b100 %
#50000
b101 #
b101 %
#60000
b110 #
b110 %
#70000
b111 #
b111 %
#80000
b11 !
b11 &
b1000 #
b1000 %
#90000
b1001 #
b1001 %
#100000
1$
b1010 #
b1010 %
#110000
b1011 #
b1011 %
#120000
0$
b1100 #
b1100 %
#130000
b1101 #
b1101 %
#140000
b1110 #
b1110 %
#150000
b1111 #
b1111 %
