lab4/decoder/encoder8_3_tb.vcd
$date
	Mon Sep 09 04:33:50 2024
$end
$version
	Icarus Verilog
$end
$timescale
	1ps
$end
$scope module tb_encoder8_3 $end
$var wire 3 ! out [2:0] $end
$var reg 8 " in [7:0] $end
$scope module uut $end
$var wire 8 # in [7:0] $end
$var wire 3 $ out [2:0] $end
$upscope $end
$upscope $end
$enddefinitions $end
#0
$dumpvars
b0 $
b1 #
b1 "
b0 !
$end
#10000
b1 !
b1 $
b10 "
b10 #
#20000
b10 !
b10 $
b100 "
b100 #
#30000
b11 !
b11 $
b1000 "
b1000 #
#40000
b100 !
b100 $
b10000 "
b10000 #
#50000
b101 !
b101 $
b100000 "
b100000 #
#60000
b110 !
b110 $
b1000000 "
b1000000 #
#70000
b111 !
b111 $
b10000000 "
b10000000 #
